id;code;date;quantite;prix_unitaire;type_transaction;etat;motif;valeur_devise
1;Kentucky;2021-08-14T14:54:05;7182;9490;COMMANDE;ANNULER;parsing Buckinghamshire orchestrate;40665
2;red invoice;2021-08-14T12:50:09;39660;934;LIVRAISON;ANNULER;Cotton Executive;3216
3;New Caledonia Auto Loan Account Zimbabwe;2021-08-13T22:24:48;8015;76616;APPROVISIONNEMENT;VALIDER;scalable high-level;10624
4;Assistant;2021-08-14T03:12:58;19104;36588;COMMANDE;VALIDER;programming deliver withdrawal;24242
5;Fantastic;2021-08-14T04:33:16;28653;16350;COMMANDE;VALIDER;Alabama;72319
6;full-range capacitor invoice;2021-08-14T15:21:27;4116;58674;VENTE;VALIDER;Berkshire hard drive;78909
7;Networked Tools Svalbard & Jan Mayen Islands;2021-08-13T23:28:21;41000;88171;LIVRAISON;VALIDER;Industrial Danish Krone Producer;65169
8;New Mexico;2021-08-13T22:50:05;87484;4088;VENTE;PROVISOIRE;Towels;170
9;Malaysia;2021-08-14T05:50:52;87677;87982;COMMANDE;PROVISOIRE;synergies Operations;11454
10;withdrawal synergies;2021-08-14T00:12:57;80179;20325;LIVRAISON;PROVISOIRE;integrated;85149
